10040:
3.39
3.51
3.75
10003:
3.05
10004:
4.13
3.8
3.87
3.74
4.0
3.88
3.92
3.85
3.86
3.8
3.8
3.72
3.86
3.7
4.28
3.96
3.91
3.91
3.97
4.11
3.85
3.78
3.69
3.82
4.21
3.71
3.82
3.89
3.5
3.98
3.95
10005:
3.61
3.76
3.47
3.42
3.62
10006:
3.74
3.54
3.8
3.37
10007:
3.13
3.34
3.23
3.19
3.09
3.28
3.14
3.39
3.24
3.36
3.19
3.35
3.25
10008:
4.03
3.59
3.64
3.46
3.88
3.8
3.79
10009:
3.69
3.61
4.0
3.34
3.29
3.58
1001:
3.48
3.59
3.7
3.42
3.79
3.74
3.65
3.64
3.3
3.63
3.62
3.78
3.36
3.65
3.54
3.51
3.74
3.68
3.38
3.48
3.48
3.64
3.51
3.33
3.59
3.36
3.61
3.63
3.74
3.77
3.63
3.98
3.39
3.56
3.51
3.57
3.77
3.31
3.54
3.65
3.73
3.41
3.62
3.74
3.77
3.69
3.55
3.42
3.47
3.76
3.46
3.14
3.25
3.59
3.78
3.8
3.6
3.51
3.57
3.46
3.54
3.45
3.38
3.36
3.77
3.46
3.32
3.4
3.74
3.56
3.37
3.5
3.58
3.41
3.15
3.65
3.28
3.22
3.62
3.58
3.81
3.73
3.25
3.35
3.57
3.47
3.53
3.8
3.53
3.4
3.76
3.55
3.53
3.67
3.44
3.29
3.45
3.98
3.51
3.73
3.57
3.65
3.43
3.42
3.46
3.55
3.63
3.72
3.63
3.29
3.42
3.53
3.54
3.41
3.54
3.2
3.41
3.81
3.66
3.43
3.5
3.56
3.6
3.56
3.48
3.49
3.42
3.61
3.62
3.52
3.56
3.65
3.61
3.53
10010:
3.17
3.1
3.11
3.39
3.25
3.12
3.21
3.13
3.01
3.24
3.1
3.03
3.15
2.98
3.36
3.1
3.04
3.29
2.82
3.16
3.04
2.99
3.14
10011:
3.92
3.8
10012:
3.54
3.85
3.53
3.54
3.74
3.76
3.33
3.34
3.51
3.62
3.76
3.52
3.55
10013:
3.6
3.44
3.54
3.63
3.53
3.57
3.41
3.62
3.52
3.69
3.32
3.79
3.62
3.55
3.44
3.5
3.34
3.46
3.5
3.33
3.42
3.38
3.49
3.69
3.66
3.44
3.5
3.28
3.44
3.55
3.38
3.46
3.4
3.69
3.49
3.4
3.52
3.75
3.76
3.34
3.8
3.51
3.65
3.7
3.48
3.33
3.5
3.57
3.46
3.61
3.42
3.45
3.61
3.66
3.47
3.25
3.69
10014:
3.32
3.63
3.25
3.7
3.46
10015:
3.69
3.52
3.39
3.61
3.74
3.59
3.78
3.71
3.75
3.66
3.75
3.64
3.56
3.79
3.79
3.6
3.65
3.81
3.58
3.78
4.15
3.8
3.97
3.71
3.48
3.53
3.88
3.65
10016:
2.97
3.03
3.16
3.25
3.61
10017:
3.3
3.49
3.5
10018:
3.96
3.86
3.36
3.48
3.61
3.72
3.68
3.53
3.26
3.82
3.57
3.79
3.47
3.73
3.49
3.74
3.66
3.67
3.49
3.67
3.92
3.47
3.82
3.86
3.6
3.81
3.76
3.7
3.82
3.83
10019:
3.58
2.97
3.68
3.43
3.89
3.84
3.6
3.3
3.7
3.62
3.92
3.41
3.42
3.5
3.69
3.63
3.72
3.65
3.55
3.91
3.69
3.7
3.69
3.62
3.74
3.64
3.46
3.52
3.58
3.69
3.67
3.35
3.69
3.77
3.51
3.77
3.22
3.73
3.75
3.81
3.76
3.84
3.8
3.72
3.84
3.41
3.7
3.82
3.59
3.61
3.48
3.54
3.75
3.52
2.68
3.22
3.31
3.49
3.89
3.53
3.41
3.56
3.98
3.55
3.78
4.02
3.54
3.99
3.62
1002:
3.6
3.31
3.54
3.61
3.36
3.63
3.82
3.23
3.6
3.64
3.82
3.57
3.53
3.44
10020:
3.79
3.81
3.72
3.85
3.74
3.66
3.71
3.86
3.82
3.77
3.75
4.08
3.82
3.64
3.76
3.75
3.86
3.59
3.83
3.64
3.91
3.56
3.7
3.71
3.53
3.27
3.85
10021:
3.22
3.34
3.39
3.02
10022:
3.16
3.54
3.39
3.37
3.6
3.54
3.24
3.25
10023:
3.74
3.72
3.74
3.62
4.04
3.62
3.57
3.71
3.6
3.75
3.91
10024:
3.58
3.74
3.6
3.7
3.62
3.63
3.43
3.5
3.66
3.67
10025:
3.36
10027:
3.97
3.79
3.7
3.68
3.45
3.68
3.57
4.08
3.48
3.96
3.71
3.75
3.83
3.62
3.75
4.0
3.63
3.81
3.85
3.82
3.55
3.69
3.72
3.79
3.87
3.8
3.91
3.95
4.16
3.96
3.98
3.86
3.54
3.72
3.93
3.86
4.04
3.8
3.82
3.64
3.93
3.95
4.13
3.7
3.67
3.95
3.8
3.76
3.86
3.9
3.75
3.88
3.68
3.65
3.61
3.76
3.63
3.64
3.92
3.86
3.69
3.57
3.97
3.55
3.96
4.15
3.6
3.83
3.55
3.87
3.85
3.84
3.92
3.85
3.97
3.78
3.88
3.69
3.43
3.68
4.04
4.08
3.59
3.78
3.8
3.89
3.72
3.81
10028:
3.54
3.63
3.54
3.88
4.04
3.52
3.98
10029:
3.46
3.77
3.76
3.35
10031:
3.51
3.34
3.64
3.2
3.69
3.4
3.29
3.13
3.32
10032:
3.48
4.03
3.82
3.86
3.79
3.36
3.61
3.55
3.7
3.28
3.46
3.84
4.0
3.58
3.82
3.34
3.64
3.58
3.55
3.65
3.49
3.61
3.52
3.57
3.71
3.44
3.4
3.6
3.92
3.5
3.62
3.69
3.82
3.68
3.29
3.76
3.66
3.52
3.56
3.63
3.6
3.64
3.59
3.43
3.55
3.63
3.75
10033:
3.79
3.6
3.36
3.7
3.46
3.42
3.54
3.51
3.73
3.52
3.75
3.63
4.06
3.81
10034:
2.87
3.51
10035:
3.3
4.0
3.95
3.91
3.93
3.92
3.8
3.67
3.63
3.69
3.78
3.75
3.79
3.83
3.73
3.74
3.81
3.9
3.86
4.18
4507:
3.57
3.75
3.56
3.57
3.6
3.68
3.37
3.59
3.66
3.41
3.6
3.65
3.64
3.41
3.5
3.64
3.74
3.72
3.59
3.44
3.69
3.48
3.65
3.7
3.75
3.6
3.77
3.6
3.52
3.63
3.51
3.6
3.51
3.59
3.59
3.41
3.44
3.39
3.62
3.41
3.43
3.52
3.5
3.69
3.58
3.64
3.5
3.74
3.84
3.57
3.31
3.52
3.56
4508:
3.64
4.09
3.51
3.82
3.42
3.84
4.09
3.59
3.29
3.59
3.96
3.92
3.6
3.63
4.03
3.85
3.92
3.86
3.53
3.57
3.72
3.31
4.11
3.9
3.59
3.92
3.73
3.59
3.78
3.94
3.51
3.75
3.9
3.7
3.86
3.8
3.87
3.89
3.75
3.5
3.31
3.75
3.22
3.63
4.05
3.94
3.69
3.81
3.85
3.8
4.15
3.42
3.42
3.75
3.84
3.86
3.93
3.83
3.88
3.79
4.09
3.9
3.69
3.28
3.63
4.09
4.0
3.66
3.56
3.67
3.81
3.81
3.89
3.46
4.06
3.75
3.84
3.6
3.75
3.75
3.59
3.78
3.48
3.56
3.25
4509:
3.95
4.06
3.62
3.9
4.06
3.8
3.93
3.75
3.73
3.85
3.68
3.89
3.71
3.68
3.81
4.04
4.1
3.8
3.94
3.94
3.71
4519:
3.67
3.68
3.62
3.5
3.57
3.52
3.89
3.45
3.54
3.57
3.38
2.88
2.82
3.78
2.55
2.88
3.06
3.75
3.43
3.8
3.74
3.75
3.59
3.36
3.07
3.24
3.69
2.86
3.84
3.82
2.75
452:
3.62
3.24
3.58
3.28
3.51
3.86
3.41
3.2
3.56
3.47
3.3
3.22
3.19
3.39
3.15
3.43
3.65
3.2
3.32
3.49
3.27
3.48
3.1
3.45
3.24
3.76
3.52
3.66
3.22
3.5
3.3
3.35
3.58
4520:
3.79
3.67
3.44
3.74
3.58
3.93
3.87
3.58
3.86
3.47
3.83
3.57
4.08
3.77
3.78
3.96
4.04
3.82
3.59
3.77
3.75
3.83
3.82
3.57
3.91
3.76
3.67
3.78
3.92
3.53
3.88
3.86
3.74
3.71
3.97
3.96
3.57
3.88
3.55
3.63
3.82
3.81
3.7
3.89
3.71
3.73
3.31
3.89
3.68
3.78
3.88
3.59
3.52
3.75
3.89
3.65
3.84
3.78
3.93
3.68
3.79
3.77
3.8
3.67
3.79
3.79
3.75
3.94
3.73
3.85
3.66
3.65
3.66
3.7
3.67
3.73
3.58
3.79
3.92
3.75
3.83
3.74
3.84
3.82
3.67
3.89
3.67
4.01
3.63
3.72
3.76
3.69
3.81
4.08
3.86
4.05
3.77
3.57
4.05
3.78
3.79
3.76
3.82
3.76
3.98
3.66
3.66
3.86
3.76
4.0
3.78
3.79
3.84
3.88
3.79
3.73
3.78
3.83
3.67
3.81
3.81
3.67
3.87
4.0
3.86
3.85
3.73
3.72
3.84
3.61
3.83
3.75
3.83
3.7
3.96
3.88
3.62
3.8
3.83
4.01
3.53
4.09
3.78
3.9
3.85
3.9
3.92
3.77
3.79
3.89
3.9
3.79
3.66
3.65
3.98
3.85
3.63
3.76
3.79
3.67
3.83
3.81
3.84
3.73
3.66
3.69
3.73
3.69
3.66
3.75
3.7
3.86
3.78
3.79
3.86
3.64
3.7
3.71
3.78
3.99
3.83
3.87
3.65
3.71
3.83
3.89
3.89
3.78
3.79
3.9
3.95
3.75
3.77
3.78
3.7
3.77
3.71
3.84
3.83
3.99
3.81
3.82
3.76
3.72
3.79
3.96
3.89
4.08
3.81
3.91
3.76
4.07
3.87
3.87
3.92
3.62
3.75
3.9
3.82
3.75
3.72
3.7
3.87
3.79
3.79
3.86
3.77
3.75
4.04
3.68
3.87
3.65
3.62
3.75
3.78
3.86
3.9
3.69
3.81
3.53
4.04
3.58
3.82
3.91
3.78
3.57
3.81
3.98
3.7
3.84
4.01
3.86
3.62
3.89
3.8
3.61
3.69
3.73
3.74
3.77
3.96
3.84
3.83
4.06
3.79
3.75
3.59
3.81
3.75
3.57
3.73
3.71
3.92
3.69
3.83
3.81
3.8
3.86
3.46
3.7
3.84
3.72
RMSE: 0.99
